{
  "type": "service_account",
  "project_id": "uae-ses",
  "private_key_id": "9050014edb7fc4fb304e2615ca9a600a5302052c",
  "private_key": "-----BEGIN PRIVATE KEY-----\nMIIEvQIBADANBgkqhkiG9w0BAQEFAASCBKcwggSjAgEAAoIBAQDfnv0A3A4BKE85\nRn+XPyL89c1eQqyvBfkjXV4p3isXUy1dKCImy+hzEUMbodMw0OTe21DDAZwqu9Lz\nEa5F7WPDfZvyKeVcU0qikIvl18gvymW4T3BrCPOMjII/a9HoythLz3kybjwmd1Gh\nXkCnCJLDfVxOMBryo/+ULng4/6BmtE4jMU7O5OejrfvaCzGGpDw6JcYgDeflTodU\ntnzhrcrhxJfpFMVCId/RRsL/B2Nf886j4JRkx0kAuNtWZITX2kZAo4NyOL8W0j5h\nTCDsmwDoY0L3w15RnroUzppq8/JoOZRz7sVZpa2zqujFDomev04AK8nqz/VFEE7R\ntM6+g1nFAgMBAAECggEAC93WO7Qxuw5+S8IJtcc4LlfF3uVnX/9PZfjHrS2YuEtl\n6h5d15S1AFwvZTk8aYgASTI2si508NCYRGVRC+1pwJ87BgoCnZhe6ssEXX1KpnyV\nUsdGZiuqru/q3n40fKe8/CLloc83OmxVBNzpTePW0/BkVFLZrzwULTMdFps8Eg8Q\neTb5HGeWKwuQT99TyIvHcpyda7z94y9rvlOXAiacw1Ml/FvGWJvxTEKYWG2XMHkE\nXk0BPmGWKGkhKi7qnBsvsnjUGftIsfDADewWLMFNSN5epxFxXrPUNHaKEyP+5mhq\nG81TN0ZsdVSRdQFdBjdg+pzat9uyjKptQ+RLmw7jUQKBgQD3LsQbSD2vj8jy97ez\nVwoBShR4BSdKD3ixP15H7p8DVMeA1nN1xJYhRsTfqMqGNoeHEmCmME/okZIgxHkv\nZTDVCtOGjJtNmtIzPD0KRg93LkHYvCKVxboBODiAgxvksKl60x6qPy7Vs1R4b3xl\nI7mz7fS4laPkbYjtcLaTEAzdcQKBgQDnmQ+i6HxfSL+h7PiXKvElix/JHpsxaXUd\n7X8fTv0ehssfURHYrDZYHXX5RWwhvng8D8nVHK8iTo6uG1OG1s5V8bPAsoAwOvNd\nTNXP52EnVWtpIiIfRIgSQkez8QDZcSr1KA8rrUVODeq5m8DrhLDAQePvzkSj47tH\n9a63Gc5nlQKBgEA5QnLkPkLTVR7sBiruvoa/PLpCfIbdpjpHgLOn6GDxMjTjg3Rh\n87AJtzV1oclleak6uSn0+44t5I3m/qW14Q45leQrvF5Zj6wIRsPYmEQbHLi3iTTo\n/v86IFQjvKeazy4+lIUfjYew5I22SdfthF6fwSoEl2TOoPkwg/+J+A3BAoGBAIBq\no3vuM0BWQ0PS9QhFHE939Bj9qonccr80eD9w+fMaRLjJp/6fhsaXF1ovf0S6q0qK\napyLeiSosH6j0k26/9Ax5Dzd/SxBE75RI2FTZ9B6kcNK1ObHhjexnraM1K69DFfB\nbaAHRJ2CI/vk/DTbb3I7VtsaYX8KgEbnWIhYe9V9AoGABLAfmpRAbu9xFhZMaWGY\nRxg4fhYt9EqBmkcsfHBZQW6+NDaxLkmWgAugiic0ZeY3dUJdCVBoXe5B6NC0e3Vk\nRCCmJKL2G46DHiNeyHSY9ZK9O1DUWHXHLwEicXaN2YRv/HmF1kr6Zk9LWozsZ7Rp\nCCwJWZpOFQXtqjjmt4ywq4U=\n-----END PRIVATE KEY-----\n",
  "client_email": "cloud-dns-admin@uae-ses.iam.gserviceaccount.com",
  "client_id": "103422670433050865717",
  "auth_uri": "https://accounts.google.com/o/oauth2/auth",
  "token_uri": "https://oauth2.googleapis.com/token",
  "auth_provider_x509_cert_url": "https://www.googleapis.com/oauth2/v1/certs",
  "client_x509_cert_url": "https://www.googleapis.com/robot/v1/metadata/x509/cloud-dns-admin%40uae-ses.iam.gserviceaccount.com"
}
